…
staff <- read_csv("data/instructional-staff.csv")
```

### 1. Include the line plot you made above in your report and make sure the figure width is large enough to make it legible (also fix the title, axis labels, and legend label)

``` r
staff_long <- staff %>%
  pivot_longer(cols = -faculty_type, names_to = "year") %>%
  mutate(value = as.numeric(value))

staff_long
```

    ## # A tibble: 55 × 3
    ##    faculty_type              year  value
    ##    <chr>                     <chr> <dbl>
    ##  1 Full-Time Tenured Faculty 1975   29  
    ##  2 Full-Time Tenured Faculty 1989   27.6
    ##  3 Full-Time Tenured Faculty 1993   25  
    ##  4 Full-Time Tenured Faculty 1995   24.8
    ##  5 Full-Time Tenured Faculty 1999   21.8
    ##  6 Full-Time Tenured Faculty 2001   20.3
    ##  7 Full-Time Tenured Faculty 2003   19.3
    ##  8 Full-Time Tenured Faculty 2005   17.8
    ##  9 Full-Time Tenured Faculty 2007   17.2
    ## 10 Full-Time Tenured Faculty 2009   16.8
    ## # ℹ 45 more rows
…
